{
  "ndkDirProperty": "/home/Stanse/Android/Sdk/ndk/21.3.6528147",
  "sdkFolder": "/home/Stanse/Android/Sdk",
  "sideBySideNdkFolderNames": [
    "21.0.6113669",
    "21.3.6528147",
    "21.2.6472646"
  ]
}