# Blender v2.82 (sub 7) OBJ File: ''
# www.blender.org
mtllib grass.mtl
o Cube
v 1.000000 1.000000 1.000000
v 1.000000 -1.000000 1.000000
v -1.000000 1.000000 1.000000
v -1.000000 -1.000000 1.000000
vt 0.992084 0.004201
vt 0.992084 0.991591
vt 0.004693 0.991591
vt 0.004693 0.004201
vn 0.0000 0.0000 1.0000
usemtl Material
s off
f 2/1/1 1/2/1 3/3/1 4/4/1
